<?php die(''); ?>

#: 1 @: Mon, 06 Nov 2017 14:57:43 +0000 Running: 0.4.10a3 / 76
Host: al-gwsmedia-adsl.demon.co.uk
IP: 62.49.29.87
Score: 1
Violation count: 
Why blocked: QUERY Test Trigger to test function. 
Query: test=xtestx
Referer: 
User Agent: Mozilla/5.0 (Windows NT 6.3; Win64; x64) AppleWebKit/537.36 (KHTML, like Gecko) Chrome/61.0.3163.100 Safari/537.36
Reconstructed URL: http:// hakun-kamminga.com /?test=xtestx

#: 2 @: Mon, 06 Nov 2017 14:57:48 +0000 Running: 0.4.10a3 / 76
Host: al-gwsmedia-adsl.demon.co.uk
IP: 62.49.29.87
Score: 1
Violation count: 
Why blocked: QUERY Test Trigger to test function. 
Query: &test=xtestx
Referer: 
User Agent: Mozilla/5.0 (Windows NT 6.3; Win64; x64) AppleWebKit/537.36 (KHTML, like Gecko) Chrome/61.0.3163.100 Safari/537.36
Reconstructed URL: http:// hakun-kamminga.com /?&test=xtestx

#: 3 @: Mon, 06 Nov 2017 15:18:53 +0000 Running: 0.4.10a3 / 76
Host: al-gwsmedia-adsl.demon.co.uk
IP: 62.49.29.87
Score: 1
Violation count: 
Why blocked: RFI attack/SQL injection (QU-002). Wildcard found in URL (FNAME-01). Nesting attack
Query: q=username=' or 1=1 &r=/username=' or 1=1 /*&password=1&o=username=' or 1=1 
Referer: 
User Agent: Mozilla/5.0 (Windows NT 6.3; Win64; x64) AppleWebKit/537.36 (KHTML, like Gecko) Chrome/61.0.3163.100 Safari/537.36
Reconstructed URL: http:// hakun-kamminga.com /username=%27%20or%201=1%20/*&password=1

#: 4 @: Mon, 06 Nov 2017 15:30:20 +0000 Running: 0.4.10a3 / 76
Host: wssa.beyondsecurity.com
IP: 162.213.1.246
Score: 1
Violation count: 0 
Why blocked: Hurricane Electric (ASN-HE1-33). 
Query: 
Referer: 
User Agent: Mozilla/5.0 (X11; Linux i686) AppleWebKit/537.22 (KHTML, like Gecko) Chrome/25.0.1364.152 Safari/537.22
Reconstructed URL: http:// hakun-kamminga.com:443 /

#: 5 @: Mon, 06 Nov 2017 20:04:33 +0000 Running: 0.4.10a3 / 76
Host: 178-154-171-5.spider.yandex.com
IP: 178.154.171.5
Score: 2
Violation count: 1 INSTA-BANNED
Why blocked: Yandex is banned. INSTA-BAN (SPD-0110). Yandex is banned. INSTA-BAN (HN-0110). You have been instantly banned due to extremely hazardous behavior!
Query: q=robots.txt&r=/robots.txt&o=robots.txt
Referer: 
User Agent: Mozilla/5.0 (compatible; YandexBot/3.0; +http://yandex.com/bots)
Reconstructed URL: http:// hakun-kamminga.com /robots.txt

#: 6 @: Mon, 06 Nov 2017 20:04:38 +0000 Running: 0.4.10a3 / 76
Host: 87-250-224-34.spider.yandex.com
IP: 87.250.224.34
Score: 2
Violation count: 1 INSTA-BANNED
Why blocked: Yandex is banned. INSTA-BAN (SPD-0110). Yandex is banned. INSTA-BAN (HN-0110). You have been instantly banned due to extremely hazardous behavior!
Query: 
Referer: 
User Agent: Mozilla/5.0 (compatible; YandexBot/3.0; +http://yandex.com/bots)
Reconstructed URL: http:// hakun-kamminga.com /

#: 7 @: Mon, 06 Nov 2017 20:13:57 +0000 Running: 0.4.10a3 / 76
Host: static.83.81.46.78.clients.your-server.de
IP: 78.46.81.83
Score: 2
Violation count: 1 
Why blocked: your-server.de, Known host of attack scripts. Not an access provider (HN-0133). Hetzner (ASN-HETZ-2). 
Query: q=ggjtnji&r=/ggjtnji&o=ggjtnji
Referer: https://hakun-kamminga.com/ggjtnji
User Agent: Mozilla/5.0 (Windows NT 10.0; Win64; x64) AppleWebKit/537.36 (KHTML, like Gecko) Chrome/52.0.2743.116 Safari/537.36 Edge/15.15063
Reconstructed URL: http:// hakun-kamminga.com /ggjtnji

#: 8 @: Mon, 06 Nov 2017 20:41:10 +0000 Running: 0.4.10a3 / 76
Host: 95-108-181-69.spider.yandex.com
IP: 95.108.181.69
Score: 2
Violation count: 1 INSTA-BANNED
Why blocked: Yandex is banned. INSTA-BAN (SPD-0110). Yandex is banned. INSTA-BAN (HN-0110). You have been instantly banned due to extremely hazardous behavior!
Query: q=pancake-recipe&r=/pancake-recipe&o=pancake-recipe
Referer: 
User Agent: Mozilla/5.0 (compatible; YandexBot/3.0; +http://yandex.com/bots)
Reconstructed URL: http:// hakun-kamminga.com /pancake-recipe

#: 9 @: Mon, 06 Nov 2017 22:46:15 +0000 Running: 0.4.10a3 / 76
Host: 95-108-181-71.spider.yandex.com
IP: 95.108.181.71
Score: 2
Violation count: 1 INSTA-BANNED
Why blocked: Yandex is banned. INSTA-BAN (SPD-0110). Yandex is banned. INSTA-BAN (HN-0110). You have been instantly banned due to extremely hazardous behavior!
Query: q=robots.txt&r=/robots.txt&o=robots.txt
Referer: 
User Agent: Mozilla/5.0 (compatible; YandexBot/3.0; +http://yandex.com/bots)
Reconstructed URL: http:// hakun-kamminga.com /robots.txt

#: 10 @: Mon, 06 Nov 2017 23:46:20 +0000 Running: 0.4.10a3 / 76
Host: 141-8-142-63.spider.yandex.com
IP: 141.8.142.63
Score: 2
Violation count: 1 INSTA-BANNED
Why blocked: Yandex is banned. INSTA-BAN (SPD-0110). Yandex is banned. INSTA-BAN (HN-0110). You have been instantly banned due to extremely hazardous behavior!
Query: q=login&r=/login&o=login
Referer: 
User Agent: Mozilla/5.0 (compatible; YandexBot/3.0; +http://yandex.com/bots)
Reconstructed URL: http:// hakun-kamminga.com /login

#: 11 @: Tue, 07 Nov 2017 00:33:34 +0000 Running: 0.4.10a3 / 76
Host: 178-154-171-54.spider.yandex.com
IP: 178.154.171.54
Score: 2
Violation count: 1 INSTA-BANNED
Why blocked: Yandex is banned. INSTA-BAN (SPD-0110). Yandex is banned. INSTA-BAN (HN-0110). You have been instantly banned due to extremely hazardous behavior!
Query: q=authenticate&r=/authenticate&o=authenticate
Referer: 
User Agent: Mozilla/5.0 (compatible; YandexBot/3.0; +http://yandex.com/bots)
Reconstructed URL: http:// hakun-kamminga.com /authenticate

#: 12 @: Tue, 07 Nov 2017 05:53:20 +0000 Running: 0.4.10a3 / 76
Host: static.51.35.130.94.clients.your-server.de
IP: 94.130.35.51
Score: 1
Violation count: 1 
Why blocked: your-server.de, Known host of attack scripts. Not an access provider (HN-0133). 
Query: q=fyqkrb&r=/fyqkrb&o=fyqkrb
Referer: https://hakun-kamminga.com/fyqkrb
User Agent: Mozilla/5.0 (Windows NT 6.1; WOW64; Trident/7.0; rv:11.0) like Gecko
Reconstructed URL: http:// hakun-kamminga.com /fyqkrb

#: 13 @: Tue, 07 Nov 2017 08:38:14 +0000 Running: 0.4.10a3 / 76
Host: hn.kd.ny.adsl
IP: 42.236.101.214
Score: 1
Violation count: 1 
Why blocked: Possibly hostile scraper/harvester (SPD-0215). 
Query: 
Referer: https://www.treeofopals.com/
User Agent: Mozilla/5.0 (Windows NT 6.1; WOW64) AppleWebKit/537.36 (KHTML, like Gecko) Chrome/50.4.2661.102 Safari/537.36; 360Spider
Reconstructed URL: http:// www.treeofopals.com /

#: 14 @: Tue, 07 Nov 2017 10:59:28 +0000 Running: 0.4.10a3 / 76
Host: scan-13.shadowserver.org
IP: 184.105.247.194
Score: 1
Violation count: 1 
Why blocked: Hurricane Electric (ASN-HE1-40). 
Query: 
Referer: 
User Agent: 
Reconstructed URL: http:// 178.79.163.97 /

#: 15 @: Tue, 07 Nov 2017 11:40:31 +0000 Running: 0.4.10a3 / 76
Host: static.3.41.9.5.clients.your-server.de
IP: 5.9.41.3
Score: 2
Violation count: 1 
Why blocked: your-server.de, Known host of attack scripts. Not an access provider (HN-0133). Hetzner (ASN-HETZ-0). 
Query: q=jvyugbn&r=/jvyugbn&o=jvyugbn
Referer: https://hakun-kamminga.com/jvyugbn
User Agent: Mozilla/5.0 (iPad; CPU OS 10_3_3 like Mac OS X) AppleWebKit/603.3.8 (KHTML, like Gecko) Version/10.0 Mobile/14G60 Safari/602.1
Reconstructed URL: http:// hakun-kamminga.com /jvyugbn

#: 16 @: Tue, 07 Nov 2017 11:40:36 +0000 Running: 0.4.10a3 / 76
Host: static.3.41.9.5.clients.your-server.de
IP: 5.9.41.3
Score: 2
Violation count: 2 
Why blocked: your-server.de, Known host of attack scripts. Not an access provider (HN-0133). Hetzner (ASN-HETZ-0). 
Query: q=ndcinrj&r=/ndcinrj&o=ndcinrj
Referer: https://hakun-kamminga.com/ndcinrj
User Agent: Mozilla/5.0 (Windows NT 10.0; Win64; x64) AppleWebKit/537.36 (KHTML, like Gecko) Chrome/52.0.2743.116 Safari/537.36 Edge/15.15063
Reconstructed URL: http:// hakun-kamminga.com /ndcinrj

#: 17 @: Tue, 07 Nov 2017 11:52:37 +0000 Running: 0.4.10a3 / 76
Host: p3slh005.shr.phx3.secureserver.net
IP: 68.178.254.9
Score: 1
Violation count: 1 
Why blocked: GoDaddy.com LLC, #18 HE Rank  (ASN-GODADDY-7). 
Query: q=vendor&r=/vendor/grid-editor-master/src/bhvsnccs.php&o=vendor
Referer: https://hakun-kamminga.com/vendor/grid-editor-master/src/bhvsnccs.php
User Agent: Mozilla/5.0 (Windows NT 6.1) AppleWebKit/537.36 (KHTML, like Gecko) Chrome/59.0.3071.115 Safari/537.36
Reconstructed URL: http:// hakun-kamminga.com /vendor/grid-editor-master/src/bhvsnccs.php

#: 18 @: Tue, 07 Nov 2017 11:52:45 +0000 Running: 0.4.10a3 / 76
Host: box862.bluehost.com
IP: 69.195.124.62
Score: 2
Violation count: 1 
Why blocked: Caught probing for vulnerabilities. Bothost and/or Server Farm (HN-0258). Unified Layer/Hostmonster (ASN-UNIHM-5). 
Query: q=web&r=/web/assets/js/pvbupxgj.php&o=web
Referer: https://hakun-kamminga.com/web/assets/js/pvbupxgj.php
User Agent: Mozilla/5.0 (Windows NT 6.1; WOW64; Trident/7.0; rv:11.0) like Gecko
Reconstructed URL: http:// hakun-kamminga.com /web/assets/js/pvbupxgj.php

#: 19 @: Tue, 07 Nov 2017 11:52:54 +0000 Running: 0.4.10a3 / 76
Host: server7.gullestrupnet.dk
IP: 144.76.175.147
Score: 1
Violation count: 1 
Why blocked: Hetzner (ASN-HETZ-9). 
Query: q=web&r=/web/assets/js/pvbupxgj.php&o=web
Referer: https://hakun-kamminga.com/web/assets/js/pvbupxgj.php
User Agent: Mozilla/5.0 (Windows NT 6.1) AppleWebKit/537.36 (KHTML, like Gecko) Chrome/59.0.3071.115 Safari/537.36
Reconstructed URL: http:// hakun-kamminga.com /web/assets/js/pvbupxgj.php

#: 20 @: Tue, 07 Nov 2017 11:53:02 +0000 Running: 0.4.10a3 / 76
Host: box3108.bluehost.com
IP: 162.144.177.198
Score: 2
Violation count: 1 
Why blocked: Caught probing for vulnerabilities. Bothost and/or Server Farm (HN-0258). Unified Layer/Hostmonster (ASN-UNIHM-9). 
Query: q=vendor&r=/vendor/grid-editor-master/src/bhvsnccs.php&o=vendor
Referer: https://hakun-kamminga.com/vendor/grid-editor-master/src/bhvsnccs.php
User Agent: Mozilla/5.0 (Windows NT 10.0; WOW64; rv:54.0) Gecko/20100101 Firefox/54.0
Reconstructed URL: http:// hakun-kamminga.com /vendor/grid-editor-master/src/bhvsnccs.php

#: 21 @: Tue, 07 Nov 2017 11:53:11 +0000 Running: 0.4.10a3 / 76
Host: 74-220-201-123.unifiedlayer.com
IP: 74.220.201.123
Score: 1
Violation count: 1 
Why blocked: Unified Layer/Hostmonster (ASN-UNIHM-7). 
Query: q=web&r=/web/assets/js/pvbupxgj.php&o=web
Referer: https://hakun-kamminga.com/web/assets/js/pvbupxgj.php
User Agent: Mozilla/5.0 (Windows NT 6.1; Win64; x64) AppleWebKit/537.36 (KHTML, like Gecko) Chrome/59.0.3071.115 Safari/537.36
Reconstructed URL: http:// hakun-kamminga.com /web/assets/js/pvbupxgj.php

#: 22 @: Tue, 07 Nov 2017 12:40:10 +0000 Running: 0.4.10a3 / 76
Host: 87-250-224-213.spider.yandex.com
IP: 87.250.224.213
Score: 2
Violation count: 1 INSTA-BANNED
Why blocked: Yandex is banned. INSTA-BAN (SPD-0110). Yandex is banned. INSTA-BAN (HN-0110). You have been instantly banned due to extremely hazardous behavior!
Query: q=robots.txt&r=/robots.txt&o=robots.txt
Referer: 
User Agent: Mozilla/5.0 (compatible; YandexBot/3.0; +http://yandex.com/bots)
Reconstructed URL: http:// hakun-kamminga.com /robots.txt

#: 23 @: Tue, 07 Nov 2017 12:40:15 +0000 Running: 0.4.10a3 / 76
Host: 141-8-142-213.spider.yandex.com
IP: 141.8.142.213
Score: 2
Violation count: 1 INSTA-BANNED
Why blocked: Yandex is banned. INSTA-BAN (SPD-0110). Yandex is banned. INSTA-BAN (HN-0110). You have been instantly banned due to extremely hazardous behavior!
Query: q=corporate&r=/corporate&o=corporate
Referer: 
User Agent: Mozilla/5.0 (compatible; YandexBot/3.0; +http://yandex.com/bots)
Reconstructed URL: http:// hakun-kamminga.com /corporate

#: 24 @: Tue, 07 Nov 2017 14:10:09 +0000 Running: 0.4.10a3 / 76
Host: static.51.35.130.94.clients.your-server.de
IP: 94.130.35.51
Score: 1
Violation count: 2 
Why blocked: your-server.de, Known host of attack scripts. Not an access provider (HN-0133). 
Query: q=sjjjkoq&r=/sjjjkoq&o=sjjjkoq
Referer: https://hakun-kamminga.com/sjjjkoq
User Agent: Mozilla/5.0 (iPhone; CPU iPhone OS 10_3_1 like Mac OS X) AppleWebKit/603.1.30 (KHTML, like Gecko) Version/10.0 Mobile/14E304 Safari/602.1
Reconstructed URL: http:// hakun-kamminga.com /sjjjkoq

#: 25 @: Tue, 07 Nov 2017 14:49:57 +0000 Running: 0.4.10a3 / 76
Host: al-gwsmedia-adsl.demon.co.uk
IP: 62.49.29.87
Score: 2
Violation count: 
Why blocked: Bot Detection, INSTA-BAN (IB-004). Directory traversal attack
Query: q=.codemirror.php&r=/.codemirror.php&o=.codemirror.php
Referer: https://hakun-kamminga.com/.codemirror.php?dir=/var/www/hakun-kamminga.com/htdocs/../htdocs/../../../www/diclgems.com/..
User Agent: Mozilla/5.0 (Windows NT 6.3; Win64; x64) AppleWebKit/537.36 (KHTML, like Gecko) Chrome/61.0.3163.100 Safari/537.36
Reconstructed URL: http:// hakun-kamminga.com /.codemirror.php?dir=/var/www/hakun-kamminga.com/htdocs/../htdocs/../../../www/diclgems.com/../diclgems.com

